…
#Create lag variable. 2000 is the lag for 2001. so it needs to be done before deleting 2000
#lag 1 month variable

df.month <- df.month %>%
  dplyr::group_by(code) %>%
  dplyr::mutate(lag1month = dplyr::lag(average_price, 1, default = NA))

df.month %>%
  dplyr::group_by(code) %>%
  dplyr::mutate(lag1month = dplyr::lag(average_price, 1, default = NA))
```

```
## # A tibble: 9,936 x 10
## # Groups:   code [34]
##    date  area  average_price code  houses_sold no_of_crimes borough_flag
##    <fct> <fct>         <int> <fct>       <int>        <dbl>        <int>
##  1 1995~ city~         91449 E090~          17           NA            1
##  2 1995~ city~         82203 E090~           7           NA            1
##  3 1995~ city~         79121 E090~          14           NA            1
##  4 1995~ city~         77101 E090~           7           NA            1
##  5 1995~ city~         84409 E090~          10           NA            1
##  6 1995~ city~         94901 E090~          17           NA            1
##  7 1995~ city~        110128 E090~          13           NA            1
##  8 1995~ city~        112329 E090~          14           NA            1
##  9 1995~ city~        104473 E090~          17           NA            1
## 10 1995~ city~        108038 E090~          14           NA            1
## # ... with 9,926 more rows, and 3 more variables: year <dbl>,
## #   yearmonth <chr>, lag1month <int>
```
…
